MATH 216: Assignment 2
…
Take a look at the data. Note what the column names are. Note what each row represents.

Problems

Question 1

Create a new column called route which contains the both the origin and destination airport codes seperated by a dash. For example, a flight that goes from JFK to MIA should display JFK-MIA in this new column.

tblflights %>% 
  unite(route, c(origin, dest), sep="-")

## # A tibble: 336,776 x 18
##     year month   day dep_time sched_dep_time dep_delay arr_time
##    <int> <int> <int>    <int>          <int>     <dbl>    <int>
##  1  2013     1     1      517            515         2      830
##  2  2013     1     1      533            529         4      850
##  3  2013     1     1      542            540         2      923
##  4  2013     1     1      544            545        -1     1004
##  5  2013     1     1      554            600        -6      812
##  6  2013     1     1      554            558        -4      740
##  7  2013     1     1      555            600        -5      913
##  8  2013     1     1      557            600        -3      709
##  9  2013     1     1      557            600        -3      838
## 10  2013     1     1      558            600        -2      753
## #  with 336,766 more rows, and 11 more variables: sched_arr_time <int>,
## #   arr_delay <dbl>, carrier <chr>, flight <int>, tailnum <chr>,
## #   route <chr>, air_time <dbl>, distance <dbl>, hour <dbl>, minute <dbl>,
## #   time_hour <dttm>
…
